[
    {
        "jersey_number": 1,
        "frequency": 65
    },
    {
        "jersey_number": 2,
        "frequency": 77
    },
    {
        "jersey_number": 3,
        "frequency": 68
    },
    {
        "jersey_number": 4,
        "frequency": 63
    },
    {
        "jersey_number": 5,
        "frequency": 68
    },
    {
        "jersey_number": 6,
        "frequency": 76
    },
    {
        "jersey_number": 7,
        "frequency": 62
    },
    {
        "jersey_number": 8,
        "frequency": 54
    },
    {
        "jersey_number": 9,
        "frequency": 53
    },
    {
        "jersey_number": 10,
        "frequency": 56
    },
    {
        "jersey_number": 11,
        "frequency": 66
    },
    {
        "jersey_number": 12,
        "frequency": 51
    },
    {
        "jersey_number": 13,
        "frequency": 43
    },
    {
        "jersey_number": 14,
        "frequency": 41
    },
    {
        "jersey_number": 15,
        "frequency": 37
    },
    {
        "jersey_number": 16,
        "frequency": 45
    },
    {
        "jersey_number": 17,
        "frequency": 43
    },
    {
        "jersey_number": 18,
        "frequency": 48
    },
    {
        "jersey_number": 19,
        "frequency": 35
    },
    {
        "jersey_number": 20,
        "frequency": 38
    },
    {
        "jersey_number": 21,
        "frequency": 38
    },
    {
        "jersey_number": 22,
        "frequency": 38
    },
    {
        "jersey_number": 23,
        "frequency": 41
    },
    {
        "jersey_number": 24,
        "frequency": 28
    },
    {
        "jersey_number": 25,
        "frequency": 35
    },
    {
        "jersey_number": 26,
        "frequency": 21
    },
    {
        "jersey_number": 27,
        "frequency": 15
    },
    {
        "jersey_number": 28,
        "frequency": 27
    },
    {
        "jersey_number": 29,
        "frequency": 14
    },
    {
        "jersey_number": 30,
        "frequency": 12
    },
    {
        "jersey_number": 31,
        "frequency": 11
    },
    {
        "jersey_number": 32,
        "frequency": 13
    },
    {
        "jersey_number": 33,
        "frequency": 20
    },
    {
        "jersey_number": 34,
        "frequency": 13
    },
    {
        "jersey_number": 35,
        "frequency": 5
    },
    {
        "jersey_number": 36,
        "frequency": 7
    },
    {
        "jersey_number": 37,
        "frequency": 4
    },
    {
        "jersey_number": 38,
        "frequency": 10
    },
    {
        "jersey_number": 39,
        "frequency": 5
    },
    {
        "jersey_number": 40,
        "frequency": 4
    },
    {
        "jersey_number": 41,
        "frequency": 7
    },
    {
        "jersey_number": 42,
        "frequency": 8
    },
    {
        "jersey_number": 43,
        "frequency": 5
    },
    {
        "jersey_number": 44,
        "frequency": 12
    },
    {
        "jersey_number": 45,
        "frequency": 9
    },
    {
        "jersey_number": 46,
        "frequency": 1
    },
    {
        "jersey_number": 47,
        "frequency": 4
    },
    {
        "jersey_number": 48,
        "frequency": 3
    },
    {
        "jersey_number": 49,
        "frequency": 1
    },
    {
        "jersey_number": 50,
        "frequency": 0
    },
    {
        "jersey_number": 51,
        "frequency": 0
    },
    {
        "jersey_number": 52,
        "frequency": 0
    },
    {
        "jersey_number": 53,
        "frequency": 0
    },
    {
        "jersey_number": 54,
        "frequency": 0
    },
    {
        "jersey_number": 55,
        "frequency": 0
    },
    {
        "jersey_number": 56,
        "frequency": 0
    },
    {
        "jersey_number": 57,
        "frequency": 0
    },
    {
        "jersey_number": 58,
        "frequency": 0
    },
    {
        "jersey_number": 59,
        "frequency": 0
    },
    {
        "jersey_number": 60,
        "frequency": 0
    },
    {
        "jersey_number": 61,
        "frequency": 0
    },
    {
        "jersey_number": 62,
        "frequency": 0
    },
    {
        "jersey_number": 63,
        "frequency": 0
    },
    {
        "jersey_number": 64,
        "frequency": 0
    },
    {
        "jersey_number": 65,
        "frequency": 0
    },
    {
        "jersey_number": 66,
        "frequency": 0
    },
    {
        "jersey_number": 67,
        "frequency": 0
    },
    {
        "jersey_number": 68,
        "frequency": 0
    },
    {
        "jersey_number": 69,
        "frequency": 0
    },
    {
        "jersey_number": 70,
        "frequency": 0
    },
    {
        "jersey_number": 71,
        "frequency": 0
    },
    {
        "jersey_number": 72,
        "frequency": 0
    },
    {
        "jersey_number": 73,
        "frequency": 0
    },
    {
        "jersey_number": 74,
        "frequency": 0
    },
    {
        "jersey_number": 75,
        "frequency": 0
    },
    {
        "jersey_number": 76,
        "frequency": 0
    },
    {
        "jersey_number": 77,
        "frequency": 0
    },
    {
        "jersey_number": 78,
        "frequency": 0
    },
    {
        "jersey_number": 79,
        "frequency": 0
    },
    {
        "jersey_number": 80,
        "frequency": 42
    },
    {
        "jersey_number": 81,
        "frequency": 35
    },
    {
        "jersey_number": 82,
        "frequency": 27
    },
    {
        "jersey_number": 83,
        "frequency": 37
    },
    {
        "jersey_number": 84,
        "frequency": 31
    },
    {
        "jersey_number": 85,
        "frequency": 36
    },
    {
        "jersey_number": 86,
        "frequency": 24
    },
    {
        "jersey_number": 87,
        "frequency": 36
    },
    {
        "jersey_number": 88,
        "frequency": 48
    },
    {
        "jersey_number": 89,
        "frequency": 32
    },
    {
        "jersey_number": 90,
        "frequency": 0
    },
    {
        "jersey_number": 91,
        "frequency": 0
    },
    {
        "jersey_number": 92,
        "frequency": 1
    },
    {
        "jersey_number": 93,
        "frequency": 0
    },
    {
        "jersey_number": 94,
        "frequency": 0
    },
    {
        "jersey_number": 95,
        "frequency": 0
    },
    {
        "jersey_number": 96,
        "frequency": 2
    },
    {
        "jersey_number": 97,
        "frequency": 2
    },
    {
        "jersey_number": 98,
        "frequency": 0
    },
    {
        "jersey_number": 99,
        "frequency": 1
    }
]